C:\Users\50005\OneDrive\Desktop\Study\Java\GitLabJenkins\JenkinsCourseDemo\infytel-plan\src\main\java\com\infosys\infytel\plan\controller\PlanController.java
C:\Users\50005\OneDrive\Desktop\Study\Java\GitLabJenkins\JenkinsCourseDemo\infytel-plan\src\main\java\com\infosys\infytel\plan\entity\Plan.java
C:\Users\50005\OneDrive\Desktop\Study\Java\GitLabJenkins\JenkinsCourseDemo\infytel-plan\src\main\java\com\infosys\infytel\plan\repository\PlanRepository.java
C:\Users\50005\OneDrive\Desktop\Study\Java\GitLabJenkins\JenkinsCourseDemo\infytel-plan\src\main\java\com\infosys\infytel\plan\service\PlanService.java
C:\Users\50005\OneDrive\Desktop\Study\Java\GitLabJenkins\JenkinsCourseDemo\infytel-plan\src\main\java\com\infosys\infytel\plan\PlanApplication.java
C:\Users\50005\OneDrive\Desktop\Study\Java\GitLabJenkins\JenkinsCourseDemo\infytel-plan\src\main\java\com\infosys\infytel\plan\dto\PlanDTO.java
